<svg width="16" height="16" viewBox="0 0 16 16" fill="none" xmlns="http://www.w3.org/2000/svg">
<rect width="16" height="16" fill="white"/>
<path fill-rule="evenodd" clip-rule="evenodd" d="M12.2522 14.2713C13.2835 14.2713 13.7992 14.2713 14.3065 13.9286C14.8139 13.5858 14.9561 13.2323 15.2405 12.5254C15.6022 11.6263 15.8013 10.6442 15.8013 9.61567C15.8013 5.30785 12.3091 1.81567 8.00129 1.81567C3.69347 1.81567 0.201294 5.30785 0.201294 9.61567C0.201294 10.6442 0.400374 11.6263 0.762103 12.5254C1.04652 13.2323 1.18873 13.5858 1.69607 13.9286C2.20341 14.2713 2.71908 14.2713 3.75042 14.2713H12.2522Z" fill="#0549CF"/>
<path fill-rule="evenodd" clip-rule="evenodd" d="M1.61705 9.18237C1.85637 9.18237 2.05038 9.37638 2.05038 9.61571C2.05038 10.3431 2.18069 11.0391 2.41887 11.6822C2.50198 11.9067 2.38742 12.156 2.163 12.2391C1.93857 12.3222 1.68926 12.2076 1.60614 11.9832C1.33282 11.2452 1.18372 10.4474 1.18372 9.61571C1.18372 9.37638 1.37773 9.18237 1.61705 9.18237ZM14.3856 9.18237C14.6249 9.18237 14.819 9.37638 14.819 9.61571C14.819 10.4474 14.6698 11.2452 14.3965 11.9832C14.3134 12.2076 14.0641 12.3222 13.8397 12.2391C13.6152 12.156 13.5007 11.9067 13.5838 11.6822C13.822 11.0391 13.9523 10.3431 13.9523 9.61571C13.9523 9.37638 14.1463 9.18237 14.3856 9.18237Z" fill="white"/>
<path fill-rule="evenodd" clip-rule="evenodd" d="M8.00133 3.66476C7.60334 3.66476 7.21489 3.70377 6.83946 3.77804C6.60469 3.82449 6.37672 3.67182 6.33027 3.43704C6.28383 3.20227 6.4365 2.9743 6.67127 2.92785C7.10179 2.84268 7.54657 2.7981 8.00133 2.7981C8.4561 2.7981 8.90088 2.84268 9.3314 2.92785C9.56617 2.9743 9.71885 3.20227 9.6724 3.43704C9.62595 3.67182 9.39798 3.82449 9.16321 3.77804C8.78778 3.70377 8.39933 3.66476 8.00133 3.66476ZM4.81421 4.06569C4.94735 4.26456 4.89407 4.53371 4.6952 4.66685C4.04605 5.10144 3.48706 5.66043 3.05247 6.30958C2.91933 6.50845 2.65018 6.56173 2.45131 6.42859C2.25244 6.29545 2.19916 6.0263 2.3323 5.82743C2.82991 5.08415 3.46977 4.44429 4.21305 3.94668C4.41192 3.81354 4.68107 3.86682 4.81421 4.06569ZM11.1885 4.06569C11.3216 3.86682 11.5907 3.81354 11.7896 3.94668C12.5329 4.44429 13.1728 5.08415 13.6704 5.82743C13.8035 6.0263 13.7502 6.29545 13.5514 6.42859C13.3525 6.56173 13.0833 6.50845 12.9502 6.30958C12.5156 5.66043 11.9566 5.10144 11.3075 4.66685C11.1086 4.53371 11.0553 4.26456 11.1885 4.06569ZM1.82266 7.94465C2.05744 7.9911 2.21011 8.21907 2.16366 8.45384C2.08939 8.82927 2.05038 9.21772 2.05038 9.61571C2.05038 9.85504 1.85637 10.049 1.61705 10.049C1.37773 10.049 1.18372 9.85504 1.18372 9.61571C1.18372 9.16095 1.2283 8.71617 1.31347 8.28565C1.35992 8.05087 1.58789 7.8982 1.82266 7.94465ZM14.18 7.94465C14.4148 7.89821 14.6428 8.05088 14.6892 8.28565C14.7744 8.71617 14.819 9.16095 14.819 9.61571C14.819 9.85504 14.6249 10.049 14.3856 10.049C14.1463 10.049 13.9523 9.85504 13.9523 9.61571C13.9523 9.21772 13.9133 8.82927 13.839 8.45384C13.7926 8.21907 13.9452 7.9911 14.18 7.94465Z" fill="white"/>
<path d="M6.74725 9.97181C6.78389 9.91038 6.82758 9.85343 6.87742 9.80212L10.5372 6.03465C10.8114 5.75239 10.9485 5.61127 11.0341 5.62503C11.0761 5.63179 11.114 5.65436 11.1399 5.68812C11.1927 5.7569 11.1336 5.94458 11.0155 6.31995L9.43925 11.3303C9.41778 11.3985 9.38843 11.464 9.35178 11.5255L9.30401 11.6055C8.87498 12.3248 7.94414 12.56 7.22492 12.131Lnan nanL7.22492 12.131C6.50569 11.702 6.27044 10.7711 6.69947 10.0519L6.74725 9.97181Z" fill="#FF931E"/>
</svg>
