<svg width="16" height="16" viewBox="0 0 16 16" fill="none" xmlns="http://www.w3.org/2000/svg">
<g clip-path="url(#clip0_2554_9032)">
<path fill-rule="evenodd" clip-rule="evenodd" d="M5.73254 8.38853C5.73254 7.13626 6.74771 6.12109 7.99998 6.12109C9.25225 6.12109 10.2674 7.13626 10.2674 8.38853C10.2674 9.6408 9.25225 10.656 7.99998 10.656C6.74771 10.656 5.73254 9.6408 5.73254 8.38853Z" fill="#FF931E"/>
<path fill-rule="evenodd" clip-rule="evenodd" d="M12.2324 16.0238H3.76733L3.76733 15.6444C3.76733 13.3068 5.66231 11.4119 7.99987 11.4119C10.3374 11.4119 12.2324 13.3068 12.2324 15.6444V16.0238Z" fill="#FF931E"/>
<path fill-rule="evenodd" clip-rule="evenodd" d="M7.99999 -0.0239258C7.43843 -0.0239258 7.08106 0.676334 6.36633 2.07685L5.58253 3.6127C5.37454 4.02028 5.27054 4.22407 5.09267 4.35329C4.9148 4.48252 4.68885 4.51846 4.23695 4.59033L2.53406 4.86116C0.981228 5.10812 0.20481 5.23161 0.0312764 5.76569C-0.142257 6.29977 0.413297 6.85603 1.52441 7.96857L2.74288 9.1886C3.06623 9.51237 3.22791 9.67426 3.29585 9.88335C3.36379 10.0924 3.32814 10.3184 3.25685 10.7704L2.76262 13.9039C2.60728 14.8888 2.5296 15.3812 2.80415 15.7025C2.85083 15.7571 2.90397 15.8024 2.96494 15.84V15.6444C2.96494 13.4752 4.33674 11.6263 6.26017 10.9181C5.45675 10.3645 4.93012 9.43799 4.93012 8.38852C4.93012 6.69308 6.30455 5.31866 7.99998 5.31866C9.69541 5.31866 11.0698 6.69308 11.0698 8.38852C11.0698 9.43802 10.5432 10.3645 9.73974 10.9181C11.6631 11.6264 13.0349 13.4752 13.0349 15.6444V15.8401C13.0959 15.8025 13.1491 15.7571 13.1958 15.7025C13.4704 15.3812 13.3927 14.8888 13.2374 13.9039L12.7431 10.7704C12.6718 10.3184 12.6362 10.0924 12.7041 9.88335C12.7721 9.67426 12.9338 9.51237 13.2571 9.1886L14.4756 7.96857C15.5867 6.85603 16.1422 6.29977 15.9687 5.76569C15.7952 5.23161 15.0188 5.10812 13.4659 4.86116L11.763 4.59033C11.3111 4.51846 11.0852 4.48252 10.9073 4.35329C10.7295 4.22407 10.6255 4.02028 10.4175 3.61271L9.63365 2.07685C8.91892 0.676334 8.56156 -0.0239258 7.99999 -0.0239258Z" fill="#0549CF"/>
</g>
<defs>
<clipPath id="clip0_2554_9032">
<rect width="16" height="16" fill="white"/>
</clipPath>
</defs>
</svg>
