<svg width="25" height="24" viewBox="0 0 25 24" fill="none" xmlns="http://www.w3.org/2000/svg">
<g clippath="url(#clip0_4630_97216)">
<path d="M0.75 15C0.749856 15.5523 1.25 16 1.7503 16H23.75C24.25 16 24.75 15.5 24.75 15C24.75 14.4477 24.25 14 23.75 14H1.75033C1.25 14 0.750144 14.4477 0.75 15Z" fill="#0549CF" />
<path d="M12.75 23C13.5555 23.0001 13.75 22.1876 13.75 22V16C13.75 16 13.503 16 12.75 16C11.997 16 11.75 16 11.75 16V22C11.75 22.1876 11.9445 22.9999 12.75 23Z" fill="#0549CF" />
<path d="M6.61835 22.2939C7.31593 22.6968 7.89057 22.0904 7.98438 21.9279L11.252 15.9997L10.252 15.9997L9.25195 15.9997L6.25232 20.9279C6.15851 21.0904 5.92077 21.8911 6.61835 22.2939Z" fill="#0549CF" />
<path d="M15.7499 16L14.25 16L17.7499 21.9282C17.8437 22.0906 18.4638 22.6707 19.1159 22.2942C19.7681 21.9177 19.5757 21.0906 19.482 20.9282L16.25 16L15.7499 16Z" fill="#0549CF" />
<path fillrule="evenodd" cliprule="evenodd" d="M12.8885 0.240034C12.8269 0.133368 12.6729 0.133367 12.6113 0.240034L11.8261 1.60003H3.9499C3.50807 1.60003 3.1499 1.95821 3.1499 2.40003V12.8C3.1499 13.2419 3.50807 13.6 3.9499 13.6H21.5499C21.9917 13.6 22.3499 13.2419 22.3499 12.8V2.40003C22.3499 1.95821 21.9917 1.60003 21.5499 1.60003H13.6737L12.8885 0.240034Z" fill="#0549CF" />
</g>
<defs>
<clipPath id="clip0_4630_97216">
<rect width="24" height="24" fill="white" transform="translate(0.75)" />
</clipPath>
</defs>
</svg>