<svg width="36" height="36" viewBox="0 0 36 36" fill="none" xmlns="http://www.w3.org/2000/svg">
<g filter="url(#filter0_d_1613_70161)">
<rect x="2" y="1" width="32" height="32" rx="5" fill="#F6F6F6"/>
<path fill-rule="evenodd" clip-rule="evenodd" d="M8.24408 7.24408C8.56951 6.91864 9.09715 6.91864 9.42259 7.24408L27.7559 25.5774C28.0814 25.9028 28.0814 26.4305 27.7559 26.7559C27.4305 27.0814 26.9028 27.0814 26.5774 26.7559L8.24408 8.42259C7.91864 8.09715 7.91864 7.56951 8.24408 7.24408Z" fill="#737373"/>
<path fill-rule="evenodd" clip-rule="evenodd" d="M15.6598 13.5092L14.0204 14.818L13.3394 14.137C12.9622 13.7598 12.3507 13.7598 11.9735 14.137C11.5964 14.5142 11.5964 15.1257 11.9735 15.5029L12.5013 16.0307L15.0365 18.5659L8.97038 24.632C8.59321 25.0092 8.59321 25.6207 8.97038 25.9979C9.34756 26.375 9.95909 26.375 10.3363 25.9979L16.4024 19.9318L19.0017 22.5311L19.5295 23.0588C19.9067 23.436 20.5182 23.436 20.8954 23.0588C21.2726 22.6817 21.2726 22.0701 20.8954 21.693L20.2144 21.012L21.5231 19.3726L20.1487 17.9982L18.84 19.6375L15.3949 16.1924L17.0342 14.8837L15.6598 13.5092ZM21.8057 17.2981C21.4579 16.9504 21.427 16.3969 21.7338 16.0126L23.7623 13.4717L21.5607 11.2701L19.0198 13.2986C18.6355 13.6054 18.082 13.5744 17.7343 13.2267C17.327 12.8194 17.3645 12.1484 17.8146 11.789L20.1863 9.89566L19.6584 9.36777C19.2812 8.99059 19.2812 8.37906 19.6584 8.00188C20.0356 7.6247 20.6471 7.6247 21.0243 8.00188L21.7053 8.68296L26.3496 13.3269L27.0303 14.0079C27.4075 14.3851 27.4075 14.9966 27.0303 15.3738C26.6531 15.751 26.0416 15.751 25.6644 15.3738L25.1367 14.8461L23.2434 17.2178C22.884 17.6679 22.213 17.7054 21.8057 17.2981Z" fill="#737373"/>
<rect x="2.5" y="1.5" width="31" height="31" rx="4.5" stroke="#E4E4E4"/>
</g>
<defs>
<filter id="filter0_d_1613_70161" x="0" y="0" width="36" height="36" filterUnits="userSpaceOnUse" color-interpolation-filters="sRGB">
<feFlood flood-opacity="0" result="BackgroundImageFix"/>
<feColorMatrix in="SourceAlpha" type="matrix" values="0 0 0 0 0 0 0 0 0 0 0 0 0 0 0 0 0 0 127 0" result="hardAlpha"/>
<feOffset dy="1"/>
<feGaussianBlur stdDeviation="1"/>
<feColorMatrix type="matrix" values="0 0 0 0 0.0352941 0 0 0 0 0.176471 0 0 0 0 0.45098 0 0 0 0.12 0"/>
<feBlend mode="normal" in2="BackgroundImageFix" result="effect1_dropShadow_1613_70161"/>
<feBlend mode="normal" in="SourceGraphic" in2="effect1_dropShadow_1613_70161" result="shape"/>
</filter>
</defs>
</svg>
