<svg width="24" height="24" viewBox="0 0 24 24"  xmlns="http://www.w3.org/2000/svg">
<path fill-rule="evenodd" clip-rule="evenodd" d="M2.27897 2.27897C1.99437 2.56357 1.9194 2.99636 2.09171 3.36011L10.6631 21.4553C10.8353 21.8188 11.2174 22.035 11.6177 21.9953C12.018 21.9557 12.3502 21.6688 12.4478 21.2786L14.2139 14.2139L21.2786 12.4478C21.6688 12.3502 21.9557 12.018 21.9953 11.6177C22.035 11.2174 21.8188 10.8353 21.4553 10.6631L3.36011 2.09171C2.99636 1.91941 2.56358 1.99437 2.27897 2.27897ZM18.2349 11.2453L13.1976 12.5046C12.8564 12.5899 12.5899 12.8564 12.5046 13.1976L11.2453 18.2349L4.95467 4.95467L18.2349 11.2453Z" fill="#565656"/>
</svg>
