<svg width="24" height="24" viewBox="0 0 24 24" fill="none" xmlns="http://www.w3.org/2000/svg">
<path d="M12 24C18.6274 24 24 18.6274 24 12L12 0C5.37258 0 0 5.37258 0 12C0 18.6274 5.37258 24 12 24Z" fill="#1B87C4"/>
<path d="M24 12C17.3726 12 12 6.62742 12 0L24 12Z" fill="black" fill-opacity="0.2"/>
</svg>
