<svg width="23" height="23" viewBox="0 0 23 23" fill="none" xmlns="http://www.w3.org/2000/svg">
<path d="M17.7825 22.0049C17.5092 22.0049 17.2373 21.921 17.0032 21.7539L11.5001 17.8074L5.99707 21.7539C5.52827 22.0894 4.89916 22.0894 4.43307 21.7485C3.96698 21.4109 3.77081 20.8116 3.94534 20.2643L5.99774 13.6403L0.544046 9.79731C0.0806638 9.45569 -0.11213 8.85499 0.0651049 8.30705C0.243693 7.76046 0.752398 7.38908 1.3274 7.38502L8.08195 7.37487L10.2324 0.915264C10.4137 0.367999 10.9245 0 11.5001 0C12.0758 0 12.5866 0.368676 12.7685 0.915264L14.8825 7.37487L21.6715 7.38502C22.2486 7.38908 22.758 7.76114 22.9345 8.30705C23.1124 8.85499 22.9196 9.45569 22.4556 9.79731L17.0019 13.6403L19.0543 20.2643C19.2302 20.8116 19.032 21.4109 18.5672 21.7485C18.3325 21.9203 18.0578 22.0049 17.7825 22.0049V22.0049Z" fill="#FFAC33"/>
</svg>
