<svg width="24" height="23" viewBox="0 0 24 23" fill="none" xmlns="http://www.w3.org/2000/svg">
<path d="M23.7305 10.6904C22.0073 8.18032 18.4447 11.8744 11.9428 12.6252C9.53552 12.9029 7.36646 14.9131 4.57003 14.7215C3.42343 14.6428 1.82233 11.3438 0.623675 11.8697C0.00699442 12.1407 -0.275985 13.045 0.358049 13.7244L7.39782 22.1244C7.39782 22.1244 7.75555 22.5368 8.96088 22.2512C9.25788 22.3386 13.7228 20.5493 16.3043 16.9674C16.9223 16.1097 17.6592 15.3956 18.422 14.799C20.8987 12.9676 23.591 12.3296 23.591 12.3296C23.9354 12.0453 24.0162 11.7429 23.9975 11.4806C24.0202 11.0428 23.7305 10.6904 23.7305 10.6904V10.6904Z" fill="#5C913B"/>
<path d="M7.62871 6.68174C5.10392 10.1856 0.682372 11.8454 0.682372 11.8454C-0.142539 12.5442 0.554231 13.3678 0.554231 13.3678L7.52059 21.6162C7.52059 21.6162 7.86897 22.028 9.04227 21.7424C9.04227 21.7424 13.4638 20.0859 15.9879 16.582C18.5901 12.9713 23.2827 11.8314 23.2827 11.8314C24.1069 11.1327 23.4108 10.3077 23.4108 10.3077L16.4444 2.06063C16.4444 2.06063 16.0961 1.64818 14.9228 1.93249C14.9228 1.93249 10.2309 3.06975 7.62871 6.68174V6.68174Z" fill="#A7D28B"/>
<path d="M14.6531 12.8395C16.6804 12.8395 18.3239 11.1961 18.3239 9.16877C18.3239 7.14148 16.6804 5.49805 14.6531 5.49805C12.6259 5.49805 10.9824 7.14148 10.9824 9.16877C10.9824 11.1961 12.6259 12.8395 14.6531 12.8395Z" fill="#77B255"/>
<path d="M8.56174 21.1344C7.97375 21.1344 7.75818 20.9155 7.72882 20.8821L1.44921 13.552C1.4372 13.538 1.11885 13.1736 1.15756 12.7104C1.18092 12.4295 1.32641 12.1792 1.58937 11.9663L1.63142 11.9409C1.67213 11.9249 5.74462 10.251 8.02714 7.22571L8.16063 7.32582L8.02714 7.22571C10.4418 4.02484 14.6071 2.65132 14.6485 2.63798C15.8131 2.36701 16.1942 2.7541 16.2349 2.79949L22.4317 10.1703C22.4431 10.1823 22.7607 10.548 22.722 11.0119C22.6987 11.2922 22.5532 11.5425 22.2902 11.7554L22.2242 11.7881C22.1834 11.7981 18.1336 12.8045 15.7877 15.9133C13.4525 19.0101 9.37597 21.0136 9.33526 21.033C9.02558 21.1064 8.77063 21.1344 8.56174 21.1344V21.1344ZM7.98043 20.6625C7.98109 20.6625 8.28209 20.9402 9.22513 20.7213C9.23047 20.7139 13.2356 18.7444 15.5228 15.7131C17.8166 12.6731 21.6796 11.5872 22.108 11.4744C22.2795 11.3269 22.3743 11.1634 22.3897 10.9879C22.4177 10.6675 22.1814 10.3919 22.1794 10.3892L15.9826 3.01773C15.9813 3.01773 15.6823 2.74076 14.7386 2.95966C14.7112 2.96901 10.644 4.31182 8.29411 7.4266C6.04763 10.4039 2.12796 12.0951 1.78158 12.2406C1.60272 12.3907 1.50528 12.5583 1.48993 12.7378C1.46323 13.0555 1.69816 13.3298 1.70016 13.3325L7.98043 20.6625V20.6625Z" fill="#5C913B"/>
<path d="M14.17 14.6186L14.166 18.583L14.4977 18.9768C15.1444 18.3868 15.7658 17.7234 16.303 16.9772C16.8603 16.2044 17.5077 15.543 18.1905 14.9843L17.8681 14.6006L14.17 14.6186V14.6186Z" fill="#FFAC33"/>
<path d="M17.8541 14.5864L9.50759 4.7002C8.82951 5.25814 8.17812 5.90886 7.62418 6.67838C7.08291 7.42988 6.45288 8.09127 5.79883 8.67458L6.77457 9.82986L6.77391 9.83053L14.1654 18.5829C14.8195 17.9989 15.4421 17.3308 15.9841 16.5786C16.538 15.8098 17.1887 15.1597 17.8662 14.6018L17.8535 14.5864H17.8541V14.5864Z" fill="#FFE8B6"/>
<path d="M9.6338 14.8781C8.59466 13.6475 6.39489 15.6443 5.76753 14.9015C5.46387 14.5418 5.65941 14.0753 6.05852 13.7389C6.72926 13.1716 7.21313 13.502 7.5168 13.245C7.73237 13.0635 7.72102 12.8412 7.59288 12.6884C7.29522 12.3367 6.53438 12.5202 5.94306 12.8619L5.65541 12.5215C5.47588 12.3093 5.15819 12.2819 4.94596 12.4615C4.73373 12.6417 4.70703 12.958 4.88656 13.1703L5.18422 13.5233C4.73239 14.1226 4.57889 14.9182 5.11348 15.5502C6.11191 16.7315 8.33904 14.768 9.03981 15.5983C9.28275 15.8866 9.21467 16.4365 8.70344 16.8677C7.93726 17.5157 7.24316 17.2121 6.93149 17.475C6.77932 17.6025 6.75195 17.8454 6.91413 18.0383C7.17242 18.3433 7.99533 18.2779 8.7862 17.7854C8.78754 17.7867 8.78754 17.788 8.78754 17.7894L9.11256 18.1738C9.29209 18.386 9.61044 18.4121 9.82268 18.2339C10.0356 18.0537 10.0616 17.736 9.88208 17.5237L9.55705 17.1393C9.55372 17.1353 9.54838 17.1326 9.54437 17.1286C10.0776 16.4759 10.2578 15.6156 9.6338 14.8781V14.8781Z" fill="#5C913B"/>
<path d="M21.6303 21.5742C21.6363 21.5689 21.643 21.5649 21.649 21.5602C21.6943 21.5148 21.7297 21.4627 21.7698 21.4127C21.7978 21.378 21.8292 21.3446 21.8552 21.3092C21.8785 21.2759 21.8979 21.2418 21.9193 21.2078C22.867 19.7482 22.2463 17.2734 20.3702 15.3967C18.4935 13.52 16.0181 12.8993 14.5591 13.8477C14.5244 13.8684 14.4904 13.8877 14.457 13.9117C14.4216 13.9378 14.3876 13.9691 14.3542 13.9965C14.3048 14.0372 14.2528 14.0719 14.2067 14.118C14.2007 14.124 14.1967 14.1306 14.1921 14.1367C14.1847 14.144 14.176 14.1487 14.168 14.1567L14.172 14.16C13.5046 14.8688 13.4966 15.9653 14.168 16.6374C14.8408 17.3102 15.9367 17.3008 16.6461 16.6334L16.6534 16.6414C16.6394 16.6548 16.6241 16.6634 16.6107 16.6768C15.9039 17.3836 15.8873 18.5108 16.5714 19.1962C17.2561 19.8803 18.3847 19.8636 19.0908 19.1569C19.1041 19.1435 19.1128 19.1282 19.1262 19.1141L19.1335 19.1222C18.4661 19.8309 18.4574 20.9275 19.1302 21.6002C19.8023 22.2716 20.8981 22.2636 21.6069 21.5962L21.6109 21.6002C21.6176 21.5909 21.6229 21.5822 21.6303 21.5742V21.5742Z" fill="#E1E8ED"/>
<path d="M14.169 16.6644C14.7736 17.2684 15.718 17.3177 16.4181 16.8385C16.7111 16.338 16.7952 15.8621 16.7952 15.7133C15.3222 16.8118 14.0075 15.7193 13.7131 15.0659C13.591 15.6305 13.7392 16.2339 14.169 16.6644ZM19.0404 19.2272C19.2392 18.9475 19.3934 18.6772 19.4655 18.4944C18.5278 19.354 16.7351 18.7246 16.1919 17.3611C15.9529 17.9952 16.0751 18.7253 16.573 19.2232C17.2417 19.8919 18.3309 19.8866 19.0404 19.2272ZM21.6125 21.6265L21.6319 21.6025C21.6386 21.5971 21.6452 21.5931 21.6506 21.5878C21.6966 21.5424 21.732 21.4903 21.7714 21.441C21.8001 21.4056 21.8308 21.3729 21.8568 21.3368C21.8808 21.3041 21.9002 21.2694 21.9215 21.2354C21.9649 21.1687 21.9883 21.0899 22.025 21.0192C20.3378 21.774 19.0784 20.4932 18.7253 19.8545C18.5285 20.4665 18.6566 21.152 19.1318 21.6278C19.8032 22.2999 20.8991 22.2919 21.6085 21.6238L21.6125 21.6265Z" fill="#CCD6DD"/>
<path d="M9.28387 8.16624L9.30255 8.15155C9.3486 8.10617 9.38398 8.05411 9.42335 8.00473C9.45138 7.97002 9.48208 7.93732 9.50811 7.90128C9.53214 7.86791 9.55149 7.83387 9.57285 7.79983C10.5206 6.34022 9.89921 3.86482 8.02314 1.98875C6.1464 0.112009 3.67167 -0.509344 2.21206 0.438369C2.17802 0.459726 2.14331 0.479081 2.10994 0.503107C2.0739 0.529136 2.0412 0.559837 2.0065 0.587868C1.95711 0.627912 1.90505 0.662617 1.85967 0.708668C1.85366 0.714674 1.84966 0.722016 1.84498 0.727355C1.83764 0.734029 1.8283 0.740036 1.82096 0.747377L1.82429 0.750714C1.15689 1.4595 1.14888 2.55604 1.82096 3.22812C2.49303 3.90019 3.58958 3.89218 4.29836 3.22478L4.3057 3.23212C4.29169 3.2448 4.27634 3.25415 4.26299 3.26749C3.55621 3.97427 3.53952 5.10152 4.22428 5.78694C4.90903 6.47237 6.03695 6.45501 6.74373 5.74823C6.75707 5.73489 6.76575 5.71953 6.7791 5.70552L6.78644 5.71286C6.11904 6.42164 6.11036 7.51819 6.7831 8.19026C7.45518 8.86234 8.55106 8.85433 9.25984 8.18626L9.26318 8.19026C9.27052 8.18292 9.27652 8.17425 9.28387 8.16624V8.16624Z" fill="#E1E8ED"/>
<path d="M1.81936 3.22867C2.42403 3.83334 3.36841 3.88273 4.06851 3.4022C4.3615 2.90165 4.44493 2.42645 4.44493 2.27762C2.97264 3.3755 1.65718 2.28229 1.36353 1.62891C1.24139 2.1942 1.38955 2.7982 1.81936 3.22867V3.22867ZM6.69208 5.79017C6.8903 5.51053 7.04447 5.24156 7.11588 5.05869C6.17751 5.91831 4.38486 5.28828 3.84226 3.92478C3.60333 4.55881 3.72547 5.28895 4.22268 5.78683C4.89276 6.45624 5.98263 6.45023 6.69208 5.79017V5.79017ZM9.26225 8.19082C9.26959 8.18348 9.2756 8.1748 9.28227 8.16679L9.30096 8.15211C9.34701 8.10673 9.38238 8.05467 9.42176 8.00528C9.44979 7.97058 9.48049 7.93787 9.50652 7.90183C9.53055 7.86846 9.5499 7.83443 9.57126 7.80039C9.61464 7.73365 9.638 7.65423 9.6747 7.58348C7.98751 8.33832 6.72812 7.05824 6.37506 6.41953C6.17818 7.03154 6.30632 7.71696 6.78151 8.19215C7.45359 8.86423 8.54946 8.85622 9.25824 8.18815L9.26225 8.19082V8.19082Z" fill="#CCD6DD"/>
</svg>
