<svg width="24" height="24" viewBox="0 0 24 24" fill="none" xmlns="http://www.w3.org/2000/svg">
<path d="M3.4095 3.17506H7.40317C8.13801 3.17506 8.65253 3.10584 8.65253 3.84067V2.50945C8.65253 1.77461 8.13801 1.17822 7.40317 1.17822H2.07827C0.747046 1.17822 -0.306618 2.59265 0.0814337 4.50629C0.0814337 4.50629 1.27355 10.7464 1.35741 11.1345C1.57906 12.1608 2.77117 13.1593 4.04715 13.1593H8.67849C9.41399 13.1593 8.65253 11.8973 8.65253 11.1624V9.83119C8.65253 10.566 8.13801 11.1624 7.40317 11.1624H4.74072C4.00589 11.1624 3.52065 10.4688 3.4095 9.83119C3.29834 9.19353 2.35517 4.95025 2.35517 4.95025C2.13352 3.67427 2.674 3.17506 3.4095 3.17506ZM20.5903 3.17506H16.5966C15.8618 3.17506 14.643 3.10584 14.643 3.84067V2.50945C14.643 1.77461 15.8618 1.17822 16.5966 1.17822H21.9215C23.2527 1.17822 24.3071 2.59265 23.9184 4.50629C23.9184 4.50629 22.8314 10.7757 22.7396 11.1624C22.5039 12.1608 21.3804 13.1593 20.0771 13.1593H15.3206C14.5858 13.1593 14.643 11.8973 14.643 11.1624V9.83119C14.643 10.566 15.8618 11.1624 16.5966 11.1624H19.2591C19.9939 11.1624 20.4798 10.4688 20.5903 9.83119C20.7008 9.19353 21.6446 4.95025 21.6446 4.95025C21.8656 3.67427 21.3258 3.17506 20.5903 3.17506V3.17506ZM13.8656 14.4905C13.8656 9.85914 12.0625 14.4905 12.0625 14.4905C12.0625 14.4905 10.0656 9.85914 10.0656 14.4905C10.0656 19.1218 7.87509 21.1466 7.87509 21.1466H16.0568C16.0561 21.1466 13.8656 19.1218 13.8656 14.4905Z" fill="#FFAC33"/>
<path d="M19.3837 4.22464C19.3837 8.73417 14.8775 16.3335 12.062 16.3335C9.24577 16.3335 4.74023 8.73417 4.74023 4.22464C4.74023 0.766786 5.40585 0.0186379 6.73707 0.0186379C7.65162 0.0186379 10.7474 0.000666341 12.062 0.000666341L16.7213 7.26608e-07C18.6629 -0.000664886 19.3837 0.45528 19.3837 4.22464V4.22464Z" fill="#FFCC4D"/>
<path d="M17.9713 21.8123C17.9713 22.5471 18.1224 23.1435 17.3875 23.1435H6.73772C6.00222 23.1435 5.99023 22.5471 5.99023 21.8123V21.1467C5.99023 20.4118 6.76501 19.8154 7.45858 19.8154H16.7219C17.4155 19.8154 17.9713 20.4118 17.9713 21.1467V21.8123V21.8123Z" fill="#C1694F"/>
<path d="M19.3036 22.8936C19.3036 23.3995 19.4135 23.8088 18.4703 23.8088H5.65724C4.79727 23.8088 4.66016 23.3995 4.66016 22.8936V22.7272C4.66016 22.2214 5.15138 21.812 5.65724 21.812H18.4703C18.9755 21.812 19.3036 22.2214 19.3036 22.7272V22.8936V22.8936Z" fill="#C1694F"/>
</svg>
