<svg width="24" height="22" viewBox="0 0 24 22" fill="none" xmlns="http://www.w3.org/2000/svg">
<path d="M24 6.62097C24 2.96427 21.0357 0 17.3797 0C15.1602 0 13.2017 1.09567 12 2.77037C10.7983 1.09567 8.83981 0 6.62097 0C2.96427 0 0 2.9636 0 6.62097C0 7.13894 0.0657534 7.64082 0.178474 8.12457C1.09768 13.8364 7.44825 19.8622 12 21.5168C16.5511 19.8622 22.9023 13.8364 23.8202 8.12525C23.9342 7.64149 24 7.13962 24 6.62097V6.62097Z" fill="#F0838A"/>
</svg>
